Plotting Phylogenetic trees with ggtree
…
tree2@phylo

## 
## Phylogenetic tree with 103 tips and 102 internal nodes.
## 
## Tip labels:
##  Pomacanthus_rhomboides, Pomacanthus_annularis, Pomacanthus_sexstriatus, Pomacanthus_arcuatus, Pygoplites_diacanthus, Hemitaurichthys_thompsoni, ...
## 
## Rooted; includes branch lengths.

The treedata object

tree2@data

## # A tibble: 205 x 14
##      height height_0.95_HPD height_median height_range length length_0.95_HPD
##       <dbl> <list>                  <dbl> <list>        <dbl> <list>         
##  1 5.91e-12 <dbl [2]>            5.02e-12 <dbl [2]>     12.6  <dbl [2]>      
##  2 5.91e-12 <dbl [2]>            5.02e-12 <dbl [2]>     12.6  <dbl [2]>      
##  3 1.26e+ 1 <dbl [2]>            1.24e+ 1 <dbl [2]>     46.7  <dbl [2]>      
##  4 5.91e-12 <dbl [2]>            5.21e-12 <dbl [2]>      9.77 <dbl [2]>      
##  5 5.89e-12 <dbl [2]>            5.30e-12 <dbl [2]>      5.02 <dbl [2]>      
##  6 5.91e-12 <dbl [2]>            5.30e-12 <dbl [2]>      5.56 <dbl [2]>      
##  7 3.22e+ 0 <dbl [2]>            2.77e+ 0 <dbl [2]>      4.80 <dbl [2]>      
##  8 5.90e-12 <dbl [2]>            5.22e-12 <dbl [2]>      7.60 <dbl [2]>      
##  9 7.97e+ 0 <dbl [2]>            7.83e+ 0 <dbl [2]>      2.13 <dbl [2]>      
## 10 1.03e+ 1 <dbl [2]>            1.01e+ 1 <dbl [2]>     14.7  <dbl [2]>      
## #  with 195 more rows, and 8 more variables: length_median <dbl>,
## #   length_range <list>, posterior <dbl>, rate <dbl>, rate_0.95_HPD <list>,
## #   rate_median <dbl>, rate_range <list>, node <chr>
…
